\relax 
\bibstyle{plain}
\@writefile{toc}{\contentsline {section}{\numberline {1}Left-invariant LDDMM}{1}}
\@writefile{toc}{\contentsline {section}{\numberline {2}Density-weighted Left-invariant LDMM}{3}}
